"conditionId","athleteList","radius_order","num_routes","assigned","completed","invalidated","rejected"
"1","['13759425', '1174047', '7182176', '10238605', '417540', '14778533', '816845', '9049384', '4150399', '9870597', '4629464', '11715904']","511515335133","r1","11","4","7","1"
"2","['417540', '14778533', '816845', '9049384', '4150399', '9870597', '4629464', '11715904', '13759425', '1174047', '7182176', '10238605']","153351335115","r1","9","4","5","0"
"3","['4150399', '9870597', '4629464', '11715904', '13759425', '1174047', '7182176', '10238605', '417540', '14778533', '816845', '9049384']","513351151533","r1","14","4","10","1"
"4","['5075030', '13731', '14571907', '2107109', '4970716', '2690964', '469616', '3647893', '9014804', '1126102', '13535533', '1141259']","511515335133","r1","11","4","7","0"
"5","['4970716', '2690964', '469616', '3647893', '9014804', '1126102', '13535533', '1141259', '5075030', '13731', '14571907', '2107109']","153351335115","r1","13","5","8","2"
"6","['9014804', '1126102', '13535533', '1141259', '5075030', '13731', '14571907', '2107109', '4970716', '2690964', '469616', '3647893']","513351151533","r1","7","4","3","0"
"7","['5112646', '5886516', '123795', '1393355', '2898171', '5180374', '10654619', '12752588', '1112857', '5366425', '12486181', '14353914']","511515335133","r1","8","4","4","0"
"8","['2898171', '5180374', '10654619', '12752588', '1112857', '5366425', '12486181', '14353914', '5112646', '5886516', '123795', '1393355']","153351335115","r1","6","4","2","0"
"9","['1112857', '5366425', '12486181', '14353914', '5112646', '5886516', '123795', '1393355', '2898171', '5180374', '10654619', '12752588']","513351151533","r1","11","4","7","0"
"10","['509933', '12674154', '13818790', '5002542', '5231029', '6097999', '13314594', '11627385', '4191792', '14619204', '3258808', '1175651']","511515335133","r1","8","4","4","0"
"11","['5231029', '6097999', '13314594', '11627385', '4191792', '14619204', '3258808', '1175651', '509933', '12674154', '13818790', '5002542']","153351335115","r1","13","5","8","2"
"12","['4191792', '14619204', '3258808', '1175651', '509933', '12674154', '13818790', '5002542', '5231029', '6097999', '13314594', '11627385']","513351151533","r1","8","4","4","1"
"13","['7390464', '14722345', '166616', '2004047', '2161941', '7721954', '3528108', '15119569', '4592012', '14982131', '8463591', '14083365']","511515335133","r1","11","4","7","1"
"14","['2161941', '7721954', '3528108', '15119569', '4592012', '14982131', '8463591', '14083365', '7390464', '14722345', '166616', '2004047']","153351335115","r1","24","5","19","1"
"15","['4592012', '14982131', '8463591', '14083365', '7390464', '14722345', '166616', '2004047', '2161941', '7721954', '3528108', '15119569']","513351151533","r1","8","4","4","0"
"16","['13759425', '1174047', '7182176', '10238605', '417540', '14778533', '816845', '9049384', '4150399', '9870597', '4629464', '11715904']","511515335133","r2","13","4","9","1"
"17","['417540', '14778533', '816845', '9049384', '4150399', '9870597', '4629464', '11715904', '13759425', '1174047', '7182176', '10238605']","153351335115","r2","9","4","5","0"
"18","['4150399', '9870597', '4629464', '11715904', '13759425', '1174047', '7182176', '10238605', '417540', '14778533', '816845', '9049384']","513351151533","r2","11","4","7","1"
"19","['5075030', '13731', '14571907', '2107109', '4970716', '2690964', '469616', '3647893', '9014804', '1126102', '13535533', '1141259']","511515335133","r2","13","4","9","0"
"20","['4970716', '2690964', '469616', '3647893', '9014804', '1126102', '13535533', '1141259', '5075030', '13731', '14571907', '2107109']","153351335115","r2","9","4","5","1"
"21","['9014804', '1126102', '13535533', '1141259', '5075030', '13731', '14571907', '2107109', '4970716', '2690964', '469616', '3647893']","513351151533","r2","7","4","3","0"
"22","['5112646', '5886516', '123795', '1393355', '2898171', '5180374', '10654619', '12752588', '1112857', '5366425', '12486181', '14353914']","511515335133","r2","6","4","2","0"
"23","['2898171', '5180374', '10654619', '12752588', '1112857', '5366425', '12486181', '14353914', '5112646', '5886516', '123795', '1393355']","153351335115","r2","24","5","19","1"
"24","['1112857', '5366425', '12486181', '14353914', '5112646', '5886516', '123795', '1393355', '2898171', '5180374', '10654619', '12752588']","513351151533","r2","6","4","2","0"
"25","['509933', '12674154', '13818790', '5002542', '5231029', '6097999', '13314594', '11627385', '4191792', '14619204', '3258808', '1175651']","511515335133","r2","18","6","12","3"
"26","['5231029', '6097999', '13314594', '11627385', '4191792', '14619204', '3258808', '1175651', '509933', '12674154', '13818790', '5002542']","153351335115","r2","12","4","8","0"
"27","['4191792', '14619204', '3258808', '1175651', '509933', '12674154', '13818790', '5002542', '5231029', '6097999', '13314594', '11627385']","513351151533","r2","9","5","4","2"
"28","['7390464', '14722345', '166616', '2004047', '2161941', '7721954', '3528108', '15119569', '4592012', '14982131', '8463591', '14083365']","511515335133","r2","11","4","7","1"
"29","['2161941', '7721954', '3528108', '15119569', '4592012', '14982131', '8463591', '14083365', '7390464', '14722345', '166616', '2004047']","153351335115","r2","14","6","8","3"
"30","['4592012', '14982131', '8463591', '14083365', '7390464', '14722345', '166616', '2004047', '2161941', '7721954', '3528108', '15119569']","513351151533","r2","12","4","8","0"
"31","['13759425', '1174047', '7182176', '10238605', '417540', '14778533', '816845', '9049384', '4150399', '9870597', '4629464', '11715904']","511515335133","r3","14","6","8","3"
"32","['417540', '14778533', '816845', '9049384', '4150399', '9870597', '4629464', '11715904', '13759425', '1174047', '7182176', '10238605']","153351335115","r3","9","5","4","2"
"33","['4150399', '9870597', '4629464', '11715904', '13759425', '1174047', '7182176', '10238605', '417540', '14778533', '816845', '9049384']","513351151533","r3","8","4","4","0"
"34","['5075030', '13731', '14571907', '2107109', '4970716', '2690964', '469616', '3647893', '9014804', '1126102', '13535533', '1141259']","511515335133","r3","12","4","8","0"
"35","['4970716', '2690964', '469616', '3647893', '9014804', '1126102', '13535533', '1141259', '5075030', '13731', '14571907', '2107109']","153351335115","r3","9","4","5","0"
"36","['9014804', '1126102', '13535533', '1141259', '5075030', '13731', '14571907', '2107109', '4970716', '2690964', '469616', '3647893']","513351151533","r3","28","6","22","3"
"37","['5112646', '5886516', '123795', '1393355', '2898171', '5180374', '10654619', '12752588', '1112857', '5366425', '12486181', '14353914']","511515335133","r3","8","4","4","0"
"38","['2898171', '5180374', '10654619', '12752588', '1112857', '5366425', '12486181', '14353914', '5112646', '5886516', '123795', '1393355']","153351335115","r3","18","4","14","1"
"39","['1112857', '5366425', '12486181', '14353914', '5112646', '5886516', '123795', '1393355', '2898171', '5180374', '10654619', '12752588']","513351151533","r3","7","4","3","0"
"40","['509933', '12674154', '13818790', '5002542', '5231029', '6097999', '13314594', '11627385', '4191792', '14619204', '3258808', '1175651']","511515335133","r3","23","4","19","1"
"41","['5231029', '6097999', '13314594', '11627385', '4191792', '14619204', '3258808', '1175651', '509933', '12674154', '13818790', '5002542']","153351335115","r3","9","4","5","1"
"42","['4191792', '14619204', '3258808', '1175651', '509933', '12674154', '13818790', '5002542', '5231029', '6097999', '13314594', '11627385']","513351151533","r3","6","4","2","1"
"43","['7390464', '14722345', '166616', '2004047', '2161941', '7721954', '3528108', '15119569', '4592012', '14982131', '8463591', '14083365']","511515335133","r3","9","4","5","0"
"44","['2161941', '7721954', '3528108', '15119569', '4592012', '14982131', '8463591', '14083365', '7390464', '14722345', '166616', '2004047']","153351335115","r3","6","4","2","0"
"45","['4592012', '14982131', '8463591', '14083365', '7390464', '14722345', '166616', '2004047', '2161941', '7721954', '3528108', '15119569']","513351151533","r3","7","4","3","0"
"46","['13759425', '1174047', '7182176', '10238605', '417540', '14778533', '816845', '9049384', '4150399', '9870597', '4629464', '11715904']","511515335133","r*","14","4","10","1"
"47","['417540', '14778533', '816845', '9049384', '4150399', '9870597', '4629464', '11715904', '13759425', '1174047', '7182176', '10238605']","153351335115","r*","15","5","10","2"
"48","['4150399', '9870597', '4629464', '11715904', '13759425', '1174047', '7182176', '10238605', '417540', '14778533', '816845', '9049384']","513351151533","r*","8","4","4","0"
"49","['5075030', '13731', '14571907', '2107109', '4970716', '2690964', '469616', '3647893', '9014804', '1126102', '13535533', '1141259']","511515335133","r*","8","3","5","0"
"50","['4970716', '2690964', '469616', '3647893', '9014804', '1126102', '13535533', '1141259', '5075030', '13731', '14571907', '2107109']","153351335115","r*","8","3","5","0"
"51","['9014804', '1126102', '13535533', '1141259', '5075030', '13731', '14571907', '2107109', '4970716', '2690964', '469616', '3647893']","513351151533","r*","8","3","5","0"
"52","['5112646', '5886516', '123795', '1393355', '2898171', '5180374', '10654619', '12752588', '1112857', '5366425', '12486181', '14353914']","511515335133","r*","18","4","14","0"
"53","['2898171', '5180374', '10654619', '12752588', '1112857', '5366425', '12486181', '14353914', '5112646', '5886516', '123795', '1393355']","153351335115","r*","12","4","8","1"
"54","['1112857', '5366425', '12486181', '14353914', '5112646', '5886516', '123795', '1393355', '2898171', '5180374', '10654619', '12752588']","513351151533","r*","8","4","4","0"
"55","['509933', '12674154', '13818790', '5002542', '5231029', '6097999', '13314594', '11627385', '4191792', '14619204', '3258808', '1175651']","511515335133","r*","7","5","2","1"
"56","['5231029', '6097999', '13314594', '11627385', '4191792', '14619204', '3258808', '1175651', '509933', '12674154', '13818790', '5002542']","153351335115","r*","11","4","7","1"
"57","['4191792', '14619204', '3258808', '1175651', '509933', '12674154', '13818790', '5002542', '5231029', '6097999', '13314594', '11627385']","513351151533","r*","12","4","8","0"
"58","['7390464', '14722345', '166616', '2004047', '2161941', '7721954', '3528108', '15119569', '4592012', '14982131', '8463591', '14083365']","511515335133","r*","11","4","7","0"
"59","['2161941', '7721954', '3528108', '15119569', '4592012', '14982131', '8463591', '14083365', '7390464', '14722345', '166616', '2004047']","153351335115","r*","9","4","5","0"
"60","['4592012', '14982131', '8463591', '14083365', '7390464', '14722345', '166616', '2004047', '2161941', '7721954', '3528108', '15119569']","513351151533","r*","9","4","5","0"
"61","['13759425', '1174047', '7182176', '10238605', '417540', '14778533', '816845', '9049384', '4150399', '9870597', '4629464', '11715904']","335331151515","r1","14","4","10","1"
"62","['417540', '14778533', '816845', '9049384', '4150399', '9870597', '4629464', '11715904', '13759425', '1174047', '7182176', '10238605']","311515153353","r1","11","4","7","1"
"63","['4150399', '9870597', '4629464', '11715904', '13759425', '1174047', '7182176', '10238605', '417540', '14778533', '816845', '9049384']","151533533115","r1","9","4","5","0"
"64","['5075030', '13731', '14571907', '2107109', '4970716', '2690964', '469616', '3647893', '9014804', '1126102', '13535533', '1141259']","335331151515","r1","9","4","5","1"
"65","['4970716', '2690964', '469616', '3647893', '9014804', '1126102', '13535533', '1141259', '5075030', '13731', '14571907', '2107109']","311515153353","r1","5","4","1","0"
"66","['9014804', '1126102', '13535533', '1141259', '5075030', '13731', '14571907', '2107109', '4970716', '2690964', '469616', '3647893']","151533533115","r1","13","3","9","0"
"67","['5112646', '5886516', '123795', '1393355', '2898171', '5180374', '10654619', '12752588', '1112857', '5366425', '12486181', '14353914']","335331151515","r1","8","5","3","1"
"68","['2898171', '5180374', '10654619', '12752588', '1112857', '5366425', '12486181', '14353914', '5112646', '5886516', '123795', '1393355']","311515153353","r1","8","4","4","0"
"69","['1112857', '5366425', '12486181', '14353914', '5112646', '5886516', '123795', '1393355', '2898171', '5180374', '10654619', '12752588']","151533533115","r1","17","4","13","0"
"70","['509933', '12674154', '13818790', '5002542', '5231029', '6097999', '13314594', '11627385', '4191792', '14619204', '3258808', '1175651']","335331151515","r1","6","4","2","0"
"71","['5231029', '6097999', '13314594', '11627385', '4191792', '14619204', '3258808', '1175651', '509933', '12674154', '13818790', '5002542']","311515153353","r1","6","4","2","0"
"72","['4191792', '14619204', '3258808', '1175651', '509933', '12674154', '13818790', '5002542', '5231029', '6097999', '13314594', '11627385']","151533533115","r1","9","4","5","1"
"73","['7390464', '14722345', '166616', '2004047', '2161941', '7721954', '3528108', '15119569', '4592012', '14982131', '8463591', '14083365']","335331151515","r1","14","4","10","1"
"74","['2161941', '7721954', '3528108', '15119569', '4592012', '14982131', '8463591', '14083365', '7390464', '14722345', '166616', '2004047']","311515153353","r1","14","4","10","1"
"75","['4592012', '14982131', '8463591', '14083365', '7390464', '14722345', '166616', '2004047', '2161941', '7721954', '3528108', '15119569']","151533533115","r1","9","4","5","1"
"76","['13759425', '1174047', '7182176', '10238605', '417540', '14778533', '816845', '9049384', '4150399', '9870597', '4629464', '11715904']","335331151515","r2","8","5","3","1"
"77","['417540', '14778533', '816845', '9049384', '4150399', '9870597', '4629464', '11715904', '13759425', '1174047', '7182176', '10238605']","311515153353","r2","13","3","10","0"
"78","['4150399', '9870597', '4629464', '11715904', '13759425', '1174047', '7182176', '10238605', '417540', '14778533', '816845', '9049384']","151533533115","r2","18","5","13","2"
"79","['5075030', '13731', '14571907', '2107109', '4970716', '2690964', '469616', '3647893', '9014804', '1126102', '13535533', '1141259']","335331151515","r2","9","4","5","0"
"80","['4970716', '2690964', '469616', '3647893', '9014804', '1126102', '13535533', '1141259', '5075030', '13731', '14571907', '2107109']","311515153353","r2","31","5","26","2"
"81","['9014804', '1126102', '13535533', '1141259', '5075030', '13731', '14571907', '2107109', '4970716', '2690964', '469616', '3647893']","151533533115","r2","6","4","2","1"
"82","['5112646', '5886516', '123795', '1393355', '2898171', '5180374', '10654619', '12752588', '1112857', '5366425', '12486181', '14353914']","335331151515","r2","5","4","1","0"
"83","['2898171', '5180374', '10654619', '12752588', '1112857', '5366425', '12486181', '14353914', '5112646', '5886516', '123795', '1393355']","311515153353","r2","7","3","4","0"
"84","['1112857', '5366425', '12486181', '14353914', '5112646', '5886516', '123795', '1393355', '2898171', '5180374', '10654619', '12752588']","151533533115","r2","8","4","4","1"
"85","['509933', '12674154', '13818790', '5002542', '5231029', '6097999', '13314594', '11627385', '4191792', '14619204', '3258808', '1175651']","335331151515","r2","6","4","2","0"
"86","['5231029', '6097999', '13314594', '11627385', '4191792', '14619204', '3258808', '1175651', '509933', '12674154', '13818790', '5002542']","311515153353","r2","6","5","1","2"
"87","['4191792', '14619204', '3258808', '1175651', '509933', '12674154', '13818790', '5002542', '5231029', '6097999', '13314594', '11627385']","151533533115","r2","8","3","5","0"
"88","['7390464', '14722345', '166616', '2004047', '2161941', '7721954', '3528108', '15119569', '4592012', '14982131', '8463591', '14083365']","335331151515","r2","7","3","4","0"
"89","['2161941', '7721954', '3528108', '15119569', '4592012', '14982131', '8463591', '14083365', '7390464', '14722345', '166616', '2004047']","311515153353","r2","11","4","7","1"
"90","['4592012', '14982131', '8463591', '14083365', '7390464', '14722345', '166616', '2004047', '2161941', '7721954', '3528108', '15119569']","151533533115","r2","8","4","4","1"
"91","['13759425', '1174047', '7182176', '10238605', '417540', '14778533', '816845', '9049384', '4150399', '9870597', '4629464', '11715904']","335331151515","r3","9","5","4","2"
"92","['417540', '14778533', '816845', '9049384', '4150399', '9870597', '4629464', '11715904', '13759425', '1174047', '7182176', '10238605']","311515153353","r3","13","3","10","0"
"93","['4150399', '9870597', '4629464', '11715904', '13759425', '1174047', '7182176', '10238605', '417540', '14778533', '816845', '9049384']","151533533115","r3","16","3","13","0"
"94","['5075030', '13731', '14571907', '2107109', '4970716', '2690964', '469616', '3647893', '9014804', '1126102', '13535533', '1141259']","335331151515","r3","14","5","9","1"
"95","['4970716', '2690964', '469616', '3647893', '9014804', '1126102', '13535533', '1141259', '5075030', '13731', '14571907', '2107109']","311515153353","r3","7","4","3","0"
"96","['9014804', '1126102', '13535533', '1141259', '5075030', '13731', '14571907', '2107109', '4970716', '2690964', '469616', '3647893']","151533533115","r3","8","5","3","2"
"97","['5112646', '5886516', '123795', '1393355', '2898171', '5180374', '10654619', '12752588', '1112857', '5366425', '12486181', '14353914']","335331151515","r3","14","4","10","1"
"98","['2898171', '5180374', '10654619', '12752588', '1112857', '5366425', '12486181', '14353914', '5112646', '5886516', '123795', '1393355']","311515153353","r3","15","5","10","2"
"99","['1112857', '5366425', '12486181', '14353914', '5112646', '5886516', '123795', '1393355', '2898171', '5180374', '10654619', '12752588']","151533533115","r3","15","4","11","1"
"100","['509933', '12674154', '13818790', '5002542', '5231029', '6097999', '13314594', '11627385', '4191792', '14619204', '3258808', '1175651']","335331151515","r3","18","4","14","1"
"101","['5231029', '6097999', '13314594', '11627385', '4191792', '14619204', '3258808', '1175651', '509933', '12674154', '13818790', '5002542']","311515153353","r3","11","3","8","0"
"102","['4191792', '14619204', '3258808', '1175651', '509933', '12674154', '13818790', '5002542', '5231029', '6097999', '13314594', '11627385']","151533533115","r3","11","4","7","1"
"103","['7390464', '14722345', '166616', '2004047', '2161941', '7721954', '3528108', '15119569', '4592012', '14982131', '8463591', '14083365']","335331151515","r3","25","3","22","0"
"104","['2161941', '7721954', '3528108', '15119569', '4592012', '14982131', '8463591', '14083365', '7390464', '14722345', '166616', '2004047']","311515153353","r3","11","6","5","3"
"105","['4592012', '14982131', '8463591', '14083365', '7390464', '14722345', '166616', '2004047', '2161941', '7721954', '3528108', '15119569']","151533533115","r3","13","4","9","0"
"106","['13759425', '1174047', '7182176', '10238605', '417540', '14778533', '816845', '9049384', '4150399', '9870597', '4629464', '11715904']","335331151515","r*","4","3","1","0"
"107","['417540', '14778533', '816845', '9049384', '4150399', '9870597', '4629464', '11715904', '13759425', '1174047', '7182176', '10238605']","311515153353","r*","7","4","3","0"
"108","['4150399', '9870597', '4629464', '11715904', '13759425', '1174047', '7182176', '10238605', '417540', '14778533', '816845', '9049384']","151533533115","r*","7","3","4","0"
"109","['5075030', '13731', '14571907', '2107109', '4970716', '2690964', '469616', '3647893', '9014804', '1126102', '13535533', '1141259']","335331151515","r*","6","3","3","0"
"110","['4970716', '2690964', '469616', '3647893', '9014804', '1126102', '13535533', '1141259', '5075030', '13731', '14571907', '2107109']","311515153353","r*","15","6","9","1"
"111","['9014804', '1126102', '13535533', '1141259', '5075030', '13731', '14571907', '2107109', '4970716', '2690964', '469616', '3647893']","151533533115","r*","5","4","1","1"
"112","['5112646', '5886516', '123795', '1393355', '2898171', '5180374', '10654619', '12752588', '1112857', '5366425', '12486181', '14353914']","335331151515","r*","7","4","3","1"
"113","['2898171', '5180374', '10654619', '12752588', '1112857', '5366425', '12486181', '14353914', '5112646', '5886516', '123795', '1393355']","311515153353","r*","8","4","4","1"
"114","['1112857', '5366425', '12486181', '14353914', '5112646', '5886516', '123795', '1393355', '2898171', '5180374', '10654619', '12752588']","151533533115","r*","8","5","3","1"
"115","['509933', '12674154', '13818790', '5002542', '5231029', '6097999', '13314594', '11627385', '4191792', '14619204', '3258808', '1175651']","335331151515","r*","16","4","12","0"
"116","['5231029', '6097999', '13314594', '11627385', '4191792', '14619204', '3258808', '1175651', '509933', '12674154', '13818790', '5002542']","311515153353","r*","9","5","4","2"
"117","['4191792', '14619204', '3258808', '1175651', '509933', '12674154', '13818790', '5002542', '5231029', '6097999', '13314594', '11627385']","151533533115","r*","8","4","4","1"
"118","['7390464', '14722345', '166616', '2004047', '2161941', '7721954', '3528108', '15119569', '4592012', '14982131', '8463591', '14083365']","335331151515","r*","4","3","1","0"
"119","['2161941', '7721954', '3528108', '15119569', '4592012', '14982131', '8463591', '14083365', '7390464', '14722345', '166616', '2004047']","311515153353","r*","8","3","5","0"
"120","['4592012', '14982131', '8463591', '14083365', '7390464', '14722345', '166616', '2004047', '2161941', '7721954', '3528108', '15119569']","151533533115","r*","7","5","2","1"
"121","['13759425', '1174047', '7182176', '10238605', '417540', '14778533', '816845', '9049384', '4150399', '9870597', '4629464', '11715904']","153153513351","r1","12","4","8","1"
"122","['417540', '14778533', '816845', '9049384', '4150399', '9870597', '4629464', '11715904', '13759425', '1174047', '7182176', '10238605']","535133511531","r1","13","3","10","0"
"123","['4150399', '9870597', '4629464', '11715904', '13759425', '1174047', '7182176', '10238605', '417540', '14778533', '816845', '9049384']","335115315351","r1","6","4","2","0"
"124","['5075030', '13731', '14571907', '2107109', '4970716', '2690964', '469616', '3647893', '9014804', '1126102', '13535533', '1141259']","153153513351","r1","6","4","2","0"
"125","['4970716', '2690964', '469616', '3647893', '9014804', '1126102', '13535533', '1141259', '5075030', '13731', '14571907', '2107109']","535133511531","r1","9","3","6","0"
"126","['9014804', '1126102', '13535533', '1141259', '5075030', '13731', '14571907', '2107109', '4970716', '2690964', '469616', '3647893']","335115315351","r1","8","5","3","2"
"127","['5112646', '5886516', '123795', '1393355', '2898171', '5180374', '10654619', '12752588', '1112857', '5366425', '12486181', '14353914']","153153513351","r1","19","4","15","1"
"128","['2898171', '5180374', '10654619', '12752588', '1112857', '5366425', '12486181', '14353914', '5112646', '5886516', '123795', '1393355']","535133511531","r1","7","3","4","0"
"129","['1112857', '5366425', '12486181', '14353914', '5112646', '5886516', '123795', '1393355', '2898171', '5180374', '10654619', '12752588']","335115315351","r1","12","4","8","1"
"130","['509933', '12674154', '13818790', '5002542', '5231029', '6097999', '13314594', '11627385', '4191792', '14619204', '3258808', '1175651']","153153513351","r1","8","4","4","0"
"131","['5231029', '6097999', '13314594', '11627385', '4191792', '14619204', '3258808', '1175651', '509933', '12674154', '13818790', '5002542']","535133511531","r1","11","5","6","2"
"132","['4191792', '14619204', '3258808', '1175651', '509933', '12674154', '13818790', '5002542', '5231029', '6097999', '13314594', '11627385']","335115315351","r1","14","3","11","0"
"133","['7390464', '14722345', '166616', '2004047', '2161941', '7721954', '3528108', '15119569', '4592012', '14982131', '8463591', '14083365']","153153513351","r1","6","4","2","1"
"134","['2161941', '7721954', '3528108', '15119569', '4592012', '14982131', '8463591', '14083365', '7390464', '14722345', '166616', '2004047']","535133511531","r1","6","3","3","0"
"135","['4592012', '14982131', '8463591', '14083365', '7390464', '14722345', '166616', '2004047', '2161941', '7721954', '3528108', '15119569']","335115315351","r1","6","4","2","1"
"136","['13759425', '1174047', '7182176', '10238605', '417540', '14778533', '816845', '9049384', '4150399', '9870597', '4629464', '11715904']","153153513351","r2","9","3","6","0"
"137","['417540', '14778533', '816845', '9049384', '4150399', '9870597', '4629464', '11715904', '13759425', '1174047', '7182176', '10238605']","535133511531","r2","4","4","0","0"
"138","['4150399', '9870597', '4629464', '11715904', '13759425', '1174047', '7182176', '10238605', '417540', '14778533', '816845', '9049384']","335115315351","r2","6","4","2","0"
"139","['5075030', '13731', '14571907', '2107109', '4970716', '2690964', '469616', '3647893', '9014804', '1126102', '13535533', '1141259']","153153513351","r2","14","5","9","2"
"140","['4970716', '2690964', '469616', '3647893', '9014804', '1126102', '13535533', '1141259', '5075030', '13731', '14571907', '2107109']","535133511531","r2","11","4","7","0"
"141","['9014804', '1126102', '13535533', '1141259', '5075030', '13731', '14571907', '2107109', '4970716', '2690964', '469616', '3647893']","335115315351","r2","12","4","8","1"
"142","['5112646', '5886516', '123795', '1393355', '2898171', '5180374', '10654619', '12752588', '1112857', '5366425', '12486181', '14353914']","153153513351","r2","11","4","7","1"
"143","['2898171', '5180374', '10654619', '12752588', '1112857', '5366425', '12486181', '14353914', '5112646', '5886516', '123795', '1393355']","535133511531","r2","7","4","3","0"
"144","['1112857', '5366425', '12486181', '14353914', '5112646', '5886516', '123795', '1393355', '2898171', '5180374', '10654619', '12752588']","335115315351","r2","8","5","3","2"
"145","['509933', '12674154', '13818790', '5002542', '5231029', '6097999', '13314594', '11627385', '4191792', '14619204', '3258808', '1175651']","153153513351","r2","9","4","5","1"
"146","['5231029', '6097999', '13314594', '11627385', '4191792', '14619204', '3258808', '1175651', '509933', '12674154', '13818790', '5002542']","535133511531","r2","13","5","9","1"
"147","['4191792', '14619204', '3258808', '1175651', '509933', '12674154', '13818790', '5002542', '5231029', '6097999', '13314594', '11627385']","335115315351","r2","15","5","10","2"
"148","['7390464', '14722345', '166616', '2004047', '2161941', '7721954', '3528108', '15119569', '4592012', '14982131', '8463591', '14083365']","153153513351","r2","16","4","12","1"
"149","['2161941', '7721954', '3528108', '15119569', '4592012', '14982131', '8463591', '14083365', '7390464', '14722345', '166616', '2004047']","535133511531","r2","10","3","7","0"
"150","['4592012', '14982131', '8463591', '14083365', '7390464', '14722345', '166616', '2004047', '2161941', '7721954', '3528108', '15119569']","335115315351","r2","10","5","5","2"
"151","['13759425', '1174047', '7182176', '10238605', '417540', '14778533', '816845', '9049384', '4150399', '9870597', '4629464', '11715904']","153153513351","r3","8","4","4","1"
"152","['417540', '14778533', '816845', '9049384', '4150399', '9870597', '4629464', '11715904', '13759425', '1174047', '7182176', '10238605']","535133511531","r3","15","4","11","0"
"153","['4150399', '9870597', '4629464', '11715904', '13759425', '1174047', '7182176', '10238605', '417540', '14778533', '816845', '9049384']","335115315351","r3","7","5","2","1"
"154","['5075030', '13731', '14571907', '2107109', '4970716', '2690964', '469616', '3647893', '9014804', '1126102', '13535533', '1141259']","153153513351","r3","10","5","5","2"
"155","['4970716', '2690964', '469616', '3647893', '9014804', '1126102', '13535533', '1141259', '5075030', '13731', '14571907', '2107109']","535133511531","r3","6","4","2","1"
"156","['9014804', '1126102', '13535533', '1141259', '5075030', '13731', '14571907', '2107109', '4970716', '2690964', '469616', '3647893']","335115315351","r3","10","3","7","0"
"157","['5112646', '5886516', '123795', '1393355', '2898171', '5180374', '10654619', '12752588', '1112857', '5366425', '12486181', '14353914']","153153513351","r3","12","3","9","0"
"158","['2898171', '5180374', '10654619', '12752588', '1112857', '5366425', '12486181', '14353914', '5112646', '5886516', '123795', '1393355']","535133511531","r3","6","4","2","1"
"159","['1112857', '5366425', '12486181', '14353914', '5112646', '5886516', '123795', '1393355', '2898171', '5180374', '10654619', '12752588']","335115315351","r3","14","3","11","0"
"160","['509933', '12674154', '13818790', '5002542', '5231029', '6097999', '13314594', '11627385', '4191792', '14619204', '3258808', '1175651']","153153513351","r3","8","3","5","0"
"161","['5231029', '6097999', '13314594', '11627385', '4191792', '14619204', '3258808', '1175651', '509933', '12674154', '13818790', '5002542']","535133511531","r3","7","4","3","0"
"162","['4191792', '14619204', '3258808', '1175651', '509933', '12674154', '13818790', '5002542', '5231029', '6097999', '13314594', '11627385']","335115315351","r3","11","3","8","0"
"163","['7390464', '14722345', '166616', '2004047', '2161941', '7721954', '3528108', '15119569', '4592012', '14982131', '8463591', '14083365']","153153513351","r3","4","3","1","0"
"164","['2161941', '7721954', '3528108', '15119569', '4592012', '14982131', '8463591', '14083365', '7390464', '14722345', '166616', '2004047']","535133511531","r3","14","5","9","2"
"165","['4592012', '14982131', '8463591', '14083365', '7390464', '14722345', '166616', '2004047', '2161941', '7721954', '3528108', '15119569']","335115315351","r3","14","3","11","0"
"166","['13759425', '1174047', '7182176', '10238605', '417540', '14778533', '816845', '9049384', '4150399', '9870597', '4629464', '11715904']","153153513351","r*","6","3","3","0"
"167","['417540', '14778533', '816845', '9049384', '4150399', '9870597', '4629464', '11715904', '13759425', '1174047', '7182176', '10238605']","535133511531","r*","7","5","2","1"
"168","['4150399', '9870597', '4629464', '11715904', '13759425', '1174047', '7182176', '10238605', '417540', '14778533', '816845', '9049384']","335115315351","r*","8","3","5","0"
"169","['5075030', '13731', '14571907', '2107109', '4970716', '2690964', '469616', '3647893', '9014804', '1126102', '13535533', '1141259']","153153513351","r*","4","4","0","1"
"170","['4970716', '2690964', '469616', '3647893', '9014804', '1126102', '13535533', '1141259', '5075030', '13731', '14571907', '2107109']","535133511531","r*","11","4","7","0"
"171","['9014804', '1126102', '13535533', '1141259', '5075030', '13731', '14571907', '2107109', '4970716', '2690964', '469616', '3647893']","335115315351","r*","19","3","16","0"
"172","['5112646', '5886516', '123795', '1393355', '2898171', '5180374', '10654619', '12752588', '1112857', '5366425', '12486181', '14353914']","153153513351","r*","7","5","2","2"
"173","['2898171', '5180374', '10654619', '12752588', '1112857', '5366425', '12486181', '14353914', '5112646', '5886516', '123795', '1393355']","535133511531","r*","7","3","4","0"
"174","['1112857', '5366425', '12486181', '14353914', '5112646', '5886516', '123795', '1393355', '2898171', '5180374', '10654619', '12752588']","335115315351","r*","12","3","9","0"
"175","['509933', '12674154', '13818790', '5002542', '5231029', '6097999', '13314594', '11627385', '4191792', '14619204', '3258808', '1175651']","153153513351","r*","4","3","1","0"
"176","['5231029', '6097999', '13314594', '11627385', '4191792', '14619204', '3258808', '1175651', '509933', '12674154', '13818790', '5002542']","535133511531","r*","9","3","6","0"
"177","['4191792', '14619204', '3258808', '1175651', '509933', '12674154', '13818790', '5002542', '5231029', '6097999', '13314594', '11627385']","335115315351","r*","12","4","8","0"
"178","['7390464', '14722345', '166616', '2004047', '2161941', '7721954', '3528108', '15119569', '4592012', '14982131', '8463591', '14083365']","153153513351","r*","9","3","6","0"
"179","['2161941', '7721954', '3528108', '15119569', '4592012', '14982131', '8463591', '14083365', '7390464', '14722345', '166616', '2004047']","535133511531","r*","13","3","10","0"
"180","['4592012', '14982131', '8463591', '14083365', '7390464', '14722345', '166616', '2004047', '2161941', '7721954', '3528108', '15119569']","335115315351","r*","13","4","9","1"
